A quantitative gesture analysis of 737 videos and 546 speakers in the TV News Archive
…
1 Preliminaries

This is the code used for the analysis reported in A quantitative gesture analysis of 737 videos and 546 speakers in the TV News Archive.

Load packages used, load datasets and give them shorter names for easier coding:

library(tidyverse)    # Data processing and visualisation and writing for loops
library(lme4)   # Fitting logistic regression models
library(scales)   # Adding line breaks to plots
library(car)    # Identifying collinearity issues

# Data:
(size <- read_csv('tinyhuge_alldata_coded.csv'))    # 'Tiny/huge number' dataset

## # A tibble: 804 x 31
##       ID URL   Archive_ID Title SpeakerName HasPhrase Phrase Negated Plural
##    <int> <chr> <chr>      <chr> <chr>       <chr>     <chr>  <chr>   <chr> 
##  1  4939 http CSPAN2_20 Toni iain dunca yes       huge_ no      no    
##  2  9433 http MSNBC_201 Hard anita dunn  yes       huge_ no      no    
##  3   338 http CSPAN_201 Wash claire mcc yes       tiny_ no      no    
##  4  1715 http FOXNEWS_2 The  steven cen yes       huge_ no      no    
##  5   356 http CSPAN_201 Key  james jay  yes       tiny_ no      no    
##  6   204 http KQED_2014 PBS  <NA>        yes       tiny_ no      no    
##  7  6449 http CNBC_2014 Squa jim cramer  yes       huge_ no      no    
##  8  5865 http CSPAN3_20 Poli thilo kosl yes       huge_ no      no    
##  9   368 http CSPAN2_20 Toda john harwo yes       tiny_ no      no    
## 10  9593 http CNN_20120 CNN  haroon mog yes       huge_ yes     no    
## # ... with 794 more rows, and 22 more variables: SpeakerVisible <chr>,
## #   HandsVisible <chr>, HandsVisibleGenerous <chr>, HandsFree <chr>,
## #   HandsMoving <chr>, NounPlural <chr>, ContextMove <chr>,
## #   Duplicated <chr>, WhichHand <chr>, HandConfig <chr>, PinchType <chr>,
## #   PinkieCurl <chr>, PalmOrientation <chr>, MovementVertical <chr>,
## #   MovementHorizontal <chr>, MovementSagittal <chr>, QuantityType <chr>,
## #   QuantityValue <chr>, VerbatimReferent <chr>, QuantityContrast <chr>,
## #   OfInterest <chr>, Comments <chr>

(height <- read_csv('highlow_alldata_coded.csv'))   # 'Low/high number' dataset

## # A tibble: 869 x 31
##       ID URL   Archive_ID Title SpeakerName HasPhrase Phrase Negated Plural
##    <int> <chr> <chr>      <chr> <chr>       <chr>     <chr>  <chr>   <chr> 
##  1   795 http CSPAN2_20 Book peter berg yes       low_n no      no    
##  2   814 http MSNBC_201 MSNB morgan bre yes       low_n no      yes   
##  3   249 http WBFF_2010 Fox  no          yes       high_ no      no    
##  4   720 http CNN_20110 In t michio kaku yes       low_n no      yes   
##  5   556 http CSPAN2_20 U.S. richard ha yes       low_n no      no    
##  6   449 http KPIX_2014 KPIX kiet do     yes       high_ no      no    
##  7   636 http CSPAN2_20 U.S. cristina l yes       low_n no      yes   
##  8   117 http CSPAN2_20 Toni ray lahood  yes       high_ no      no    
##  9   566 http CSPAN_201 U.S. sheila jac yes       low_n no      no    
## 10   607 http FOXNEWSW_ Amer no          yes       low_n no      no    
## # ... with 859 more rows, and 22 more variables: SpeakerVisible <chr>,
## #   HandsVisible <chr>, HandsVisibleGenerous <chr>, HandsFree <chr>,
## #   HandsMoving <chr>, NounPlural <chr>, ContextMove <chr>,
## #   Duplicated <chr>, WhichHand <chr>, HandConfig <chr>, PinchType <chr>,
## #   PinkieCurl <chr>, PalmOrientation <chr>, MovementVertical <chr>,
## #   MovementHorizontal <chr>, MovementSagittal <chr>, QuantityType <chr>,
## #   QuantityValue <chr>, VerbatimReferent <chr>, QuantityContrast <chr>,
## #   OfInterest <chr>, Comments <chr>

(valence <- read_csv('DoM_data.csv'))   # 'Standards' dataset (low, high, lower, raise)

## # A tibble: 1,600 x 38
##    Order    ID Archive_ID Title URL   Snippet Phrase HasPhrase
##    <int> <int> <chr>      <chr> <chr> <chr>   <chr>  <chr>    
##  1     1    31 WTMJ_2016 Toda http "wacky low_s no       
##  2     2   782 CSPAN_201 Toda http only w low_s yes      
##  3     3   347 FOXNEWSW_ Spec http least  low_s yes      
##  4     4   768 CSPAN_201 C-SP http . it i low_s yes      
##  5     5   711 KNTV_2014 Toda http standa low_s yes      
##  6     6   512 CNN_20121 CNN  http pretty low_s yes      
##  7     7   775 CSPAN_201 Wash http is pro low_s yes      
##  8     8   494 CSPAN2_20 Publ http off an low_s yes      
##  9     9   266 MSNBCW_20 The  http "of th low_s yes      
## 10    10   276 FOXNEWSW_ Outn http traffi low_s yes      
## # ... with 1,590 more rows, and 30 more variables: SpeakerVisible <chr>,
## #   HandsVisible <chr>, HandsVisibleGenerous <chr>, HandsFree <chr>,
## #   HandsFreeGenerous <chr>, Aspect <chr>, Aspect2 <chr>,
## #   Participle <chr>, Agent <chr>, Animacy <chr>, Negated <chr>,
## #   Contrasted <chr>, Focus <chr>, FocusExamp <chr>, SpeakerName <chr>,
## #   Duplicate <chr>, NonNative <chr>, HandsMoving <chr>, NounPlural <chr>,
## #   ContextMove <chr>, WhichHand <chr>, HandConfig <chr>,
## #   PalmOrientation <chr>, MovementVertical <chr>,
## #   MovementHorizontal <chr>, MovementSagittal <chr>, Duration <chr>,
…
Doesnt look like there was an issue.

6 Orders of magnitude

6.1 Orders of magnitude: tiny/huge

Lets now look at orders of magnitude by creating an additional column in the dataset that takes the logarithmic value in powers of ten of the QuantityValue column:

size2 <- filter(size, QuantityType == 'number')   # Only look at 'number' values
size2$QuantityValue <- as.numeric(size2$QuantityValue)    # Turn QuantityValue into numeric vector
size2 <- mutate(size2, Magnitude = log10(QuantityValue))    # Create column taking the log10 of QuantityValue
size2$Magnitude <- as.numeric(substr(size2$Magnitude, 1,2))    # Print only first two digits
select(size2, QuantityValue, Magnitude)    # Look at QuantityValue and Magnitude columns

## # A tibble: 30 x 2
##    QuantityValue Magnitude
##            <dbl>     <dbl>
##  1             7         0
##  2            50         1
##  3         10000         4
##  4       7000000         6
##  5         22004         4
##  6         10000         4
##  7            17         1
##  8       1000000         6
##  9       1000000         6
## 10      30000000         7
## # ... with 20 more rows
…
Absolute magnitude does not seem to predict gesture co-occurrence.

6.2 Orders of magnitude: low/high

Lets now look at orders of magnitude by creating an additional column in the dataset that takes the logarithmic value in powers of ten of the QuantityValue column:

height2 <- filter(height, QuantityType == 'number')   # Only look at 'number' values
height2$QuantityValue <- as.numeric(height2$QuantityValue)    # Turn QuantityValue into numeric vector
height2 <- mutate(height2, Magnitude = log10(QuantityValue))    # Create column taking the log10 of QuantityValue
height2$Magnitude <- as.numeric(substr(height2$Magnitude, 1,2))    # Print only first two digits
select(height2, QuantityValue, Magnitude)   # Look at QuantityValue and Magnitude columns

## # A tibble: 50 x 2
##    QuantityValue Magnitude
##            <dbl>     <dbl>
##  1       5.00e 1         1
##  2       1.90e 6         6
##  3       3.70e 1         1
##  4       1.00e 6         6
##  5       1.00e 3         3
##  6       2.50e 0         0
##  7       3.58e 5         5
##  8       1.00e 9         9
##  9       6.00e 0         0
## 10       1.00e12        12
## # ... with 40 more rows
…
