Tiny numbers are actually tiny
…
Load the packages used, load tiny/huge numbers dataset and give it a shorter name for easier coding:

# Packages:
library(tidyverse)    # Data processing and visualisation
library(tidyr)    # Data processing and visualisation
library(dplyr)    # Writing for loops 
library(lme4)   # Fitting logistic regression models
library(effects)    # Plotting logistic regression models
library(brms)   # Fitting Bayesian models

# Data:
(size <- read_csv('tinyhuge_alldata_coded.csv'))

## # A tibble: 804 x 31
##       ID URL   Archive_ID Title SpeakerName HasPhrase Phrase Negated Plural
##    <int> <chr> <chr>      <chr> <chr>       <chr>     <chr>  <chr>   <chr> 
##  1  4939 http CSPAN2_20 Toni iain dunca yes       huge_ no      no    
##  2  9433 http MSNBC_201 Hard anita dunn  yes       huge_ no      no    
##  3   338 http CSPAN_201 Wash claire mcc yes       tiny_ no      no    
##  4  1715 http FOXNEWS_2 The  steven cen yes       huge_ no      no    
##  5   356 http CSPAN_201 Key  james jay  yes       tiny_ no      no    
##  6   204 http KQED_2014 PBS  <NA>        yes       tiny_ no      no    
##  7  6449 http CNBC_2014 Squa jim cramer  yes       huge_ no      no    
##  8  5865 http CSPAN3_20 Poli thilo kosl yes       huge_ no      no    
##  9   368 http CSPAN2_20 Toda john harwo yes       tiny_ no      no    
## 10  9593 http CNN_20120 CNN  haroon mog yes       huge_ yes     no    
## # ... with 794 more rows, and 22 more variables: SpeakerVisible <chr>,
## #   HandsVisible <chr>, HandsVisibleGenerous <chr>, HandsFree <chr>,
## #   HandsMoving <chr>, NounPlural <chr>, ContextMove <chr>,
## #   Duplicated <chr>, WhichHand <chr>, HandConfig <chr>, PinchType <chr>,
## #   PinkieCurl <chr>, PalmOrientation <chr>, MovementVertical <chr>,
## #   MovementHorizontal <chr>, MovementSagittal <chr>, QuantityType <chr>,
## #   QuantityValue <chr>, VerbatimReferent <chr>, QuantityContrast <chr>,
## #   OfInterest <chr>, Comments <chr>
…
This model reveals no statistically reliable relationship between whether a speaker gestures with one or both hands and phrase or noun plurality.

Orders of magnitude: tiny/huge

Lets now look at orders of magnitude by creating an additional column in the dataset that takes the logarithmic value in powers of ten of the QuantityValue column:

size2 <- filter(size, QuantityType == 'number')   # Only look at 'number' values
size2$QuantityValue <- as.numeric(size2$QuantityValue)    # Turn QuantityValue into numeric vector
size2 <- mutate(size2, Magnitude = log10(QuantityValue))    # Create column taking the log10 of QuantityValue
size2$Magnitude <- as.numeric(substr(size2$Magnitude, 1,2))    # Print only first two digits
select(size2, QuantityValue, Magnitude)    # Look at QuantityValue and Magnitude columns

## # A tibble: 30 x 2
##    QuantityValue Magnitude
##            <dbl>     <dbl>
##  1             7         0
##  2            50         1
##  3         10000         4
##  4       7000000         6
##  5         22004         4
##  6         10000         4
##  7            17         1
##  8       1000000         6
##  9       1000000         6
## 10      30000000         7
## # ... with 20 more rows
…
##              
##               back down front inward   up
##   tiny_number  3.3 16.7   0.0   46.7 33.3
##   huge_number 15.5 21.1   2.8   47.9 12.7

Not much interesting going on. Most gestures are inward. There are proportionally more upwards-facing gestures for tiny number, and proportionally more backwards-facing gestures for huge number.

Low vs.high

Load low/high numbers dataset and give it a shorter name for easier coding:

(height <- read_csv('highlow_alldata_coded.csv'))

## # A tibble: 869 x 31
##       ID URL   Archive_ID Title SpeakerName HasPhrase Phrase Negated Plural
##    <int> <chr> <chr>      <chr> <chr>       <chr>     <chr>  <chr>   <chr> 
##  1   795 http CSPAN2_20 Book peter berg yes       low_n no      no    
##  2   814 http MSNBC_201 MSNB morgan bre yes       low_n no      yes   
##  3   249 http WBFF_2010 Fox  no          yes       high_ no      no    
##  4   720 http CNN_20110 In t michio kaku yes       low_n no      yes   
##  5   556 http CSPAN2_20 U.S. richard ha yes       low_n no      no    
##  6   449 http KPIX_2014 KPIX kiet do     yes       high_ no      no    
##  7   636 http CSPAN2_20 U.S. cristina l yes       low_n no      yes   
##  8   117 http CSPAN2_20 Toni ray lahood  yes       high_ no      no    
##  9   566 http CSPAN_201 U.S. sheila jac yes       low_n no      no    
## 10   607 http FOXNEWSW_ Amer no          yes       low_n no      no    
## # ... with 859 more rows, and 22 more variables: SpeakerVisible <chr>,
## #   HandsVisible <chr>, HandsVisibleGenerous <chr>, HandsFree <chr>,
## #   HandsMoving <chr>, NounPlural <chr>, ContextMove <chr>,
## #   Duplicated <chr>, WhichHand <chr>, HandConfig <chr>, PinchType <chr>,
## #   PinkieCurl <chr>, PalmOrientation <chr>, MovementVertical <chr>,
## #   MovementHorizontal <chr>, MovementSagittal <chr>, QuantityType <chr>,
## #   QuantityValue <chr>, VerbatimReferent <chr>, QuantityContrast <chr>,
## #   OfInterest <chr>, Comments <chr>
…
This logistic regression model reveals no statistically reliable trend in either direction.

Orders of magnitude: low/high

Lets now look at orders of magnitude by creating an additional column in the dataset that takes the logarithmic value in powers of ten of the QuantityValue column:

height2 <- filter(height, QuantityType == 'number')   # Only look at 'number' values
height2$QuantityValue <- as.numeric(height2$QuantityValue)    # Turn QuantityValue into numeric vector
height2 <- mutate(height2, Magnitude = log10(QuantityValue))    # Create column taking the log10 of QuantityValue
height2$Magnitude <- as.numeric(substr(height2$Magnitude, 1,2))    # Print only first two digits
select(height2, QuantityValue, Magnitude)   # Look at QuantityValue and Magnitude columns

## # A tibble: 50 x 2
##    QuantityValue Magnitude
##            <dbl>     <dbl>
##  1       5.00e 1         1
##  2       1.90e 6         6
##  3       3.70e 1         1
##  4       1.00e 6         6
##  5       1.00e 3         3
##  6       2.50e 0         0
##  7       3.58e 5         5
##  8       1.00e 9         9
##  9       6.00e 0         0
## 10       1.00e12        12
## # ... with 40 more rows
…
